%YAML 1.1
%TAG !u! tag:unity3d.com,2011:
--- !u!1 &5309177925612905139
GameObject:
  m_ObjectHideFlags: 0
  m_CorrespondingSourceObject: {fileID: 0}
  m_PrefabInstance: {fileID: 0}
  m_PrefabAsset: {fileID: 0}
  serializedVersion: 6
  m_Component:
  - component: {fileID: 7049885750831275598}
  - component: {fileID: 3134767737912513631}
  - component: {fileID: 5758588552986340058}
  - component: {fileID: 8662826916911135706}
  - component: {fileID: 8516736931900413051}
  - component: {fileID: 1369757588843811348}
  - component: {fileID: 3818162116390334996}
  m_Layer: 10
  m_Name: axe_2
  m_TagString: Obstacle
  m_Icon: {fileID: 0}
  m_NavMeshLayer: 0
  m_StaticEditorFlags: 0
  m_IsActive: 1
--- !u!4 &7049885750831275598
Transform:
  m_ObjectHideFlags: 0
  m_CorrespondingSourceObject: {fileID: 0}
  m_PrefabInstance: {fileID: 0}
  m_PrefabAsset: {fileID: 0}
  m_GameObject: {fileID: 5309177925612905139}
  m_LocalRotation: {x: 0, y: 0, z: 0, w: 1}
  m_LocalPosition: {x: 0.96, y: 2.607, z: 0}
  m_LocalScale: {x: 0.17153245, y: 0.17153245, z: 0.17153245}
  m_Children: []
  m_Father: {fileID: 0}
  m_RootOrder: 0
  m_LocalEulerAnglesHint: {x: 0, y: 0, z: 0}
--- !u!212 &3134767737912513631
SpriteRenderer:
  m_ObjectHideFlags: 0
  m_CorrespondingSourceObject: {fileID: 0}
  m_PrefabInstance: {fileID: 0}
  m_PrefabAsset: {fileID: 0}
  m_GameObject: {fileID: 5309177925612905139}
  m_Enabled: 1
  m_CastShadows: 0
  m_ReceiveShadows: 0
  m_DynamicOccludee: 1
  m_MotionVectors: 1
  m_LightProbeUsage: 1
  m_ReflectionProbeUsage: 1
  m_RenderingLayerMask: 1
  m_RendererPriority: 0
  m_Materials:
  - {fileID: 10754, guid: 0000000000000000f000000000000000, type: 0}
  m_StaticBatchInfo:
    firstSubMesh: 0
    subMeshCount: 0
  m_StaticBatchRoot: {fileID: 0}
  m_ProbeAnchor: {fileID: 0}
  m_LightProbeVolumeOverride: {fileID: 0}
  m_ScaleInLightmap: 1
  m_ReceiveGI: 1
  m_PreserveUVs: 0
  m_IgnoreNormalsForChartDetection: 0
  m_ImportantGI: 0
  m_StitchLightmapSeams: 1
  m_SelectedEditorRenderState: 0
  m_MinimumChartSize: 4
  m_AutoUVMaxDistance: 0.5
  m_AutoUVMaxAngle: 89
  m_LightmapParameters: {fileID: 0}
  m_SortingLayerID: -1029420831
  m_SortingLayer: 2
  m_SortingOrder: 0
  m_Sprite: {fileID: 21300000, guid: 7fefb10f00824924ead3e83d68160b83, type: 3}
  m_Color: {r: 1, g: 1, b: 1, a: 1}
  m_FlipX: 0
  m_FlipY: 0
  m_DrawMode: 0
  m_Size: {x: 8.99, y: 5.99}
  m_AdaptiveModeThreshold: 0.5
  m_SpriteTileMode: 0
  m_WasSpriteAssigned: 1
  m_MaskInteraction: 0
  m_SpriteSortPoint: 0
--- !u!95 &5758588552986340058
Animator:
  serializedVersion: 3
  m_ObjectHideFlags: 0
  m_CorrespondingSourceObject: {fileID: 0}
  m_PrefabInstance: {fileID: 0}
  m_PrefabAsset: {fileID: 0}
  m_GameObject: {fileID: 5309177925612905139}
  m_Enabled: 1
  m_Avatar: {fileID: 0}
  m_Controller: {fileID: 9100000, guid: af8080d457646a14dbda46ffb13c6d27, type: 2}
  m_CullingMode: 0
  m_UpdateMode: 0
  m_ApplyRootMotion: 0
  m_LinearVelocityBlending: 0
  m_WarningMessage: 
  m_HasTransformHierarchy: 1
  m_AllowConstantClipSamplingOptimization: 1
  m_KeepAnimatorControllerStateOnDisable: 0
--- !u!50 &8662826916911135706
Rigidbody2D:
  serializedVersion: 4
  m_ObjectHideFlags: 0
  m_CorrespondingSourceObject: {fileID: 0}
  m_PrefabInstance: {fileID: 0}
  m_PrefabAsset: {fileID: 0}
  m_GameObject: {fileID: 5309177925612905139}
  m_BodyType: 0
  m_Simulated: 1
  m_UseFullKinematicContacts: 0
  m_UseAutoMass: 0
  m_Mass: 1
  m_LinearDrag: 0
  m_AngularDrag: 0.05
  m_GravityScale: 1
  m_Material: {fileID: 0}
  m_Interpolate: 0
  m_SleepingMode: 1
  m_CollisionDetection: 0
  m_Constraints: 0
--- !u!114 &8516736931900413051
MonoBehaviour:
  m_ObjectHideFlags: 0
  m_CorrespondingSourceObject: {fileID: 0}
  m_PrefabInstance: {fileID: 0}
  m_PrefabAsset: {fileID: 0}
  m_GameObject: {fileID: 5309177925612905139}
  m_Enabled: 1
  m_EditorHideFlags: 0
  m_Script: {fileID: 11500000, guid: 033d9bb0f8d368c4c848a522351007c3, type: 3}
  m_Name: 
  m_EditorClassIdentifier: 
  f: 0.1
--- !u!60 &1369757588843811348
PolygonCollider2D:
  m_ObjectHideFlags: 0
  m_CorrespondingSourceObject: {fileID: 0}
  m_PrefabInstance: {fileID: 0}
  m_PrefabAsset: {fileID: 0}
  m_GameObject: {fileID: 5309177925612905139}
  m_Enabled: 1
  m_Density: 1
  m_Material: {fileID: 0}
  m_IsTrigger: 0
  m_UsedByEffector: 0
  m_UsedByComposite: 0
  m_Offset: {x: 0, y: 0}
  m_SpriteTilingProperty:
    border: {x: 0, y: 0, z: 0, w: 0}
    pivot: {x: 0.5, y: 0.5}
    oldSize: {x: 8.99, y: 5.99}
    newSize: {x: 8.99, y: 5.99}
    adaptiveTilingThreshold: 0.5
    drawMode: 0
    adaptiveTiling: 0
  m_AutoTiling: 0
  m_Points:
    m_Paths:
    - - {x: 1.545, y: -2.155}
      - {x: 1.555, y: -2.145}
      - {x: 1.555, y: -2.0149999}
      - {x: 1.495, y: -1.9449999}
      - {x: 1.435, y: -1.9449999}
      - {x: 1.355, y: -1.8249999}
      - {x: 1.3349999, y: -1.805}
      - {x: 1.245, y: -1.615}
      - {x: 1.145, y: -1.395}
      - {x: 1.125, y: -1.245}
      - {x: 1.115, y: -1.1949999}
      - {x: 1.0749999, y: -1.145}
      - {x: 1.015, y: -1.145}
      - {x: 0.965, y: -1.0749999}
      - {x: 0.905, y: -0.935}
      - {x: 0.78499997, y: -0.66499996}
      - {x: 0.48499998, y: 0.065}
      - {x: 0.305, y: 0.585}
      - {x: 0.225, y: 0.84499997}
      - {x: 0.24499999, y: 0.905}
      - {x: 0.235, y: 1.005}
      - {x: 0.205, y: 1.115}
      - {x: 0.16499999, y: 1.2149999}
      - {x: 0.044999998, y: 1.5649999}
      - {x: -0.024999999, y: 1.8249999}
      - {x: -0.074999996, y: 1.875}
      - {x: -0.145, y: 1.925}
      - {x: -0.205, y: 2.075}
      - {x: -0.265, y: 2.125}
      - {x: -0.305, y: 2.125}
      - {x: -0.39499998, y: 2.115}
      - {x: -0.435, y: 2.065}
      - {x: -0.42499998, y: 1.995}
      - {x: -0.385, y: 1.8349999}
      - {x: -0.405, y: 1.8149999}
      - {x: -0.445, y: 1.535}
      - {x: -0.59499997, y: 1.365}
      - {x: -0.78499997, y: 1.295}
      - {x: -0.885, y: 1.285}
      - {x: -1.0649999, y: 1.345}
      - {x: -1.155, y: 1.4549999}
      - {x: -1.225, y: 1.605}
      - {x: -1.2149999, y: 1.735}
      - {x: -1.155, y: 1.8449999}
      - {x: -1.1949999, y: 1.9449999}
      - {x: -1.245, y: 1.935}
      - {x: -1.375, y: 1.795}
      - {x: -1.4549999, y: 1.6949999}
      - {x: -1.485, y: 1.635}
      - {x: -1.535, y: 1.515}
      - {x: -1.5749999, y: 1.365}
      - {x: -1.5749999, y: 0.895}
      - {x: -1.525, y: 0.645}
      - {x: -1.485, y: 0.525}
      - {x: -1.355, y: 0.265}
      - {x: -1.285, y: 0.145}
      - {x: -1.225, y: 0.065}
      - {x: -1.115, y: -0.035}
      - {x: -0.995, y: -0.13499999}
      - {x: -0.885, y: -0.225}
      - {x: -0.675, y: -0.315}
      - {x: -0.39499998, y: -0.355}
      - {x: -0.044999998, y: -0.345}
      - {x: 0.015, y: -0.315}
      - {x: 0.065, y: -0.275}
      - {x: 0.055, y: -0.24499999}
      - {x: -0.145, y: -0.205}
      - {x: -0.255, y: -0.145}
      - {x: -0.435, y: 0.035}
      - {x: -0.475, y: 0.125}
      - {x: -0.515, y: 0.275}
      - {x: -0.525, y: 0.445}
      - {x: -0.45499998, y: 0.60499996}
      - {x: -0.33499998, y: 0.705}
      - {x: -0.16499999, y: 0.775}
      - {x: -0.015, y: 0.79499996}
      - {x: 0.065, y: 0.555}
      - {x: 0.255, y: -0.005}
      - {x: 0.33499998, y: -0.225}
      - {x: 0.525, y: -0.72499996}
      - {x: 0.655, y: -1.045}
      - {x: 0.715, y: -1.285}
      - {x: 0.695, y: -1.345}
      - {x: 0.775, y: -1.4549999}
      - {x: 0.835, y: -1.475}
      - {x: 0.91499996, y: -1.655}
      - {x: 0.98499995, y: -1.765}
      - {x: 1.105, y: -1.9749999}
      - {x: 1.095, y: -1.995}
      - {x: 1.135, y: -2.075}
      - {x: 1.125, y: -2.165}
      - {x: 1.145, y: -2.225}
      - {x: 1.245, y: -2.305}
      - {x: 1.305, y: -2.305}
      - {x: 1.375, y: -2.355}
      - {x: 1.495, y: -2.355}
      - {x: 1.545, y: -2.325}
      - {x: 1.535, y: -2.2949998}
      - {x: 1.495, y: -2.215}
--- !u!82 &3818162116390334996
AudioSource:
  m_ObjectHideFlags: 0
  m_CorrespondingSourceObject: {fileID: 0}
  m_PrefabInstance: {fileID: 0}
  m_PrefabAsset: {fileID: 0}
  m_GameObject: {fileID: 5309177925612905139}
  m_Enabled: 1
  serializedVersion: 4
  OutputAudioMixerGroup: {fileID: 2349848630381374916, guid: ad07d788b5748f24dafb16fa42b4adc7,
    type: 2}
  m_audioClip: {fileID: 8300000, guid: f10d37a1696613b42bccb31788709008, type: 3}
  m_PlayOnAwake: 1
  m_Volume: 0.5
  m_Pitch: 1
  Loop: 0
  Mute: 0
  Spatialize: 0
  SpatializePostEffects: 0
  Priority: 128
  DopplerLevel: 1
  MinDistance: 1
  MaxDistance: 500
  Pan2D: 0
  rolloffMode: 0
  BypassEffects: 0
  BypassListenerEffects: 0
  BypassReverbZones: 0
  rolloffCustomCurve:
    serializedVersion: 2
    m_Curve:
    - serializedVersion: 3
      time: 0
      value: 1
      inSlope: 0
      outSlope: 0
      tangentMode: 0
      weightedMode: 0
      inWeight: 0.33333334
      outWeight: 0.33333334
    - serializedVersion: 3
      time: 1
      value: 0
      inSlope: 0
      outSlope: 0
      tangentMode: 0
      weightedMode: 0
      inWeight: 0.33333334
      outWeight: 0.33333334
    m_PreInfinity: 2
    m_PostInfinity: 2
    m_RotationOrder: 4
  panLevelCustomCurve:
    serializedVersion: 2
    m_Curve:
    - serializedVersion: 3
      time: 0
      value: 0
      inSlope: 0
      outSlope: 0
      tangentMode: 0
      weightedMode: 0
      inWeight: 0.33333334
      outWeight: 0.33333334
    m_PreInfinity: 2
    m_PostInfinity: 2
    m_RotationOrder: 4
  spreadCustomCurve:
    serializedVersion: 2
    m_Curve:
    - serializedVersion: 3
      time: 0
      value: 0
      inSlope: 0
      outSlope: 0
      tangentMode: 0
      weightedMode: 0
      inWeight: 0.33333334
      outWeight: 0.33333334
    m_PreInfinity: 2
    m_PostInfinity: 2
    m_RotationOrder: 4
  reverbZoneMixCustomCurve:
    serializedVersion: 2
    m_Curve:
    - serializedVersion: 3
      time: 0
      value: 1
      inSlope: 0
      outSlope: 0
      tangentMode: 0
      weightedMode: 0
      inWeight: 0.33333334
      outWeight: 0.33333334
    m_PreInfinity: 2
    m_PostInfinity: 2
    m_RotationOrder: 4
